{
  "project_info": {
    "project_number": "313691534490",
    "project_id": "todolist-6729b",
    "storage_bucket": "todolist-6729b.appspot.com"
  },
  "client": [
    {
      "client_info": {
        "mobilesdk_app_id": "1:313691534490:android:5b7291beab2e933d4d9b23",
        "android_client_info": {
          "package_name": "com.kl.todo_firebase"
        }
      },
      "oauth_client": [
        {
          "client_id": "313691534490-sjmf0fs8ma9pva2q7970q27qhegc5t14.apps.googleusercontent.com",
          "client_type": 3
        }
      ],
      "api_key": [
        {
          "current_key": "AIzaSyB1WF9v4hClLsPXfYKsUJJHyotQbXgrzXM"
        }
      ],
      "services": {
        "appinvite_service": {
          "other_platform_oauth_client": [
            {
              "client_id": "313691534490-sjmf0fs8ma9pva2q7970q27qhegc5t14.apps.googleusercontent.com",
              "client_type": 3
            }
          ]
        }
      }
    }
  ],
  "configuration_version": "1"
}